<svg width="12" height="12" xmlns="http://www.w3.org/2000/svg">
  <path fill-rule="evenodd" clip-rule="evenodd" d="M12 6A6 6 0 110 6a6 6 0 0112 0zM3 3.5a.5.5 0 01.5-.5h1a.5.5 0 01.5.5v5a.5.5 0 01-.5.5h-1a.5.5 0 01-.5-.5v-5zM7.5 3a.5.5 0 00-.5.5v5a.5.5 0 00.5.5h1a.5.5 0 00.5-.5v-5a.5.5 0 00-.5-.5h-1z" fill="#000"/>
</svg>
